bedbaseRClient: illustrative operations on bedbase.org • bedbaseRClient
…
Metadata exploration

Illustration with known fields and values

The content returned by the API is complex. The hca package can help navigate.

library(hca)
lcc = lol(cc) # list of lists
lol_path(lcc)

## # A tibble: 24 x 3
##    path                      n is_leaf
##    <chr>                 <int> <lgl>  
##  1 [*]                     881 FALSE  
##  2 [*][*]                 1762 FALSE  
##  3 [*][*].antibody           3 TRUE   
##  4 [*][*].bedbase_config   881 TRUE   
##  5 [*][*].bigbed           881 TRUE   
##  6 [*][*].cell_type        881 TRUE   
##  7 [*][*].data_source      881 TRUE   
##  8 [*][*].description      881 TRUE   
##  9 [*][*].exp_protocol     881 TRUE   
## 10 [*][*].file_acc         878 TRUE   
## # … with 14 more rows
…
